id;recipie_class;recipie_date;latest_possible_begin;type_of_regulation;perscribed_remedies_1;perscribed_remedies_2;perscribed_remedies_3;perscribed_remedies_4;perscribed_remedies_count_1;perscribed_remedies_count_2;perscribed_remedies_count_3;perscribed_remedies_count_4;treatment_frequency;duratation_treatment;indication_key;barcode_format;colorcode_tk;icd_10_code_1;icd_10_code_2;diagnosis_from_doctor;home_visit;report
1;framework deposit North Carolina;2020-04-16;2020-04-16;Officer Granite;cross-platform;Tunnel Ouguiya;Malawi Personal Loan Account;Course;communities;infrastructures;PNG connecting;Guam hack;Cotton 1080p;85994;proactive;Mississippi monitor Illinois;Handmade;Functionality Small Fresh Bike;ROI white;tangible;false;false
2;global optimizing e-markets;2020-04-15;2020-04-16;Organized Divide Multi-tiered;Diverse Practical;magenta redundant Corporate;deposit bluetooth;optimal Frozen redundant;Central;Refined Human compressing;redundant quantify;hack UAE Dirham Jewelery;green e-business transparent;42733;card Unbranded;Fully-configurable systems haptic;input grey;Berkshire cross-platform Implementation;Small software matrices;Utah Salad Lead;true;false
3;Books redundant;2020-04-15;2020-04-16;Rustic Auto Loan Account;azure Auto Loan Account Unbranded;Product invoice redefine;haptic Incredible Rustic;haptic schemas Turkmenistan;Supervisor;Engineer Dynamic;e-business;Handcrafted Frozen Ball;invoice Chief Unbranded;99664;B2B open-source;connect Cotton;auxiliary Avon Reverse-engineered;Fantastic Frozen Bike;Orchestrator wireless;Checking Account definition;false;false
4;Israel black;2020-04-15;2020-04-15;Metal Investment Account bypassing;experiences bandwidth;matrices Intelligent Rubber Chair Toys;Generic Cotton Ball;Cotton Brand;interface Table Alabama;Rand Loti Berkshire;Pizza Devolved Pakistan Rupee;Licensed lavender cyan;Fresh;33240;Practical Frozen Car;productivity scalable Hong Kong Dollar;Avon Viaduct;Handcrafted Rubber Computer mobile;bandwidth;deposit Auto Loan Account;false;false
5;Coordinator;2020-04-15;2020-04-16;plug-and-play withdrawal Coordinator;Handmade Soft Table Toys;infrastructures bypassing Iraq;Rubber Identity violet;invoice Bedfordshire;Boliviano Mvdol;Cambridgeshire bandwidth holistic;Kids neural;Czech Koruna Martinique;redefine;37533;Papua New Guinea Virgin Islands, British collaborative;intermediate override;olive Money Market Account Small Concrete Tuna;Strategist calculate Swedish Krona;Pines hardware Configuration;Bedfordshire;false;true
6;Borders sexy;2020-04-16;2020-04-15;Intelligent;Rustic Concrete Keyboard seize hack;Pizza orchid;Botswana e-tailers Bahraini Dinar;transmitting;Forward Steel Course;implement;withdrawal;Human;alarm Buckinghamshire New Jersey;64782;RSS Germany quantify;repurpose Mountain North Carolina;ADP Avon;SSL protocol fault-tolerant;blue Cambridgeshire;Industrial;true;true
7;Personal Loan Account benchmark Mount;2020-04-16;2020-04-15;Berkshire Senior Representative;SDD strategic Architect;Florida deposit El Salvador;mobile;back up Home Loan Account;Pennsylvania Investment Account applications;Intranet Architect Liberian Dollar;azure generating;Versatile Optimization Libyan Dinar;Officer;65739;Granite global Optimization;Research;seamless Bedfordshire Cambridgeshire;system-worthy;system;Incredible Bangladesh Savings Account;true;false
8;Cameroon Mozambique bypassing;2020-04-15;2020-04-16;Manager Dynamic Garden;Borders Well;gold;Exclusive backing up;Sleek Plastic Sausages neural Movies;Savings Account Avon;indigo Wooden;Direct;payment orchestrate;overriding;78140;Granite encompassing;withdrawal olive interface;Bedfordshire;Concrete Frozen;Assurance;Virginia transmitter Texas;false;false
9;Intelligent;2020-04-15;2020-04-16;Licensed;Tasty Plastic Chair scalable Spurs;Bahamian Dollar;archive Clothing;deliver orchestration;open-source Fresh;Kroon human-resource;Small Plastic Sausages;deposit asynchronous generate;Money Market Account Unbranded;68507;pixel bandwidth;harness;Cross-platform Extended;Chair;Investor Sleek;Malaysian Ringgit;false;false
10;Auto Loan Account haptic;2020-04-15;2020-04-16;viral Moldova vertical;New York generate Money Market Account;Practical Cambridgeshire;paradigms front-end Oregon;Handcrafted Steel Shoes;Albania clear-thinking JSON;Assistant Response;Practical Metal Keyboard;Profit-focused Wooden;brand one-to-one;10172;silver artificial intelligence;e-services experiences Avon;Infrastructure Chief;generating Investor;Web;Generic Concrete Towels transmitter redundant;true;true
